// Jest Snapshot v1, https://goo.gl/fbAQLP

exports[`LoginPage should create 1`] = `
<app-login
  authService={[Function AuthService]}
  emailInput={[Function IonInput]}
  formBuilder={[Function FormBuilder]}
  loginForm={[Function FormGroup]}
  router={[Function Router]}
>
  <ion-content
    padding=""
  >
    <ion-list>
      <form
        class="ng-untouched ng-pristine ng-invalid"
        ng-reflect-form="[object Object]"
        novalidate=""
      >
        <ion-item>
          <ion-input
            class="ng-untouched ng-pristine ng-invalid"
            formcontrolname="email"
            name="email"
            ng-reflect-name="email"
            ng-reflect-placeholder="Email"
            ng-reflect-type="email"
            placeholder="Email"
            type="email"
          />
        </ion-item>
        
        <ion-item>
          <ion-input
            class="ng-untouched ng-pristine ng-invalid"
            formcontrolname="password"
            name="password"
            ng-reflect-name="password"
            ng-reflect-placeholder="password"
            ng-reflect-type="password"
            placeholder="password"
            type="password"
          />
        </ion-item>
        
        <ion-button
          block=""
          color="primary"
          ion-button=""
          ng-reflect-color="primary"
          ng-reflect-disabled="true"
          ng-reflect-type="submit"
          type="submit"
        >
          LOGIN
        </ion-button>
      </form>
    </ion-list>
  </ion-content>
</app-login>
`;
